<?xml version="1.0" encoding="UTF-8" standalone="no"?>
<svg
   xmlns:dc="http://purl.org/dc/elements/1.1/"
   xmlns:cc="http://creativecommons.org/ns#"
   xmlns:rdf="http://www.w3.org/1999/02/22-rdf-syntax-ns#"
   xmlns:svg="http://www.w3.org/2000/svg"
   xmlns="http://www.w3.org/2000/svg"
   xmlns:sodipodi="http://sodipodi.sourceforge.net/DTD/sodipodi-0.dtd"
   xmlns:inkscape="http://www.inkscape.org/namespaces/inkscape"
   viewBox="0 0 300 300"
   version="1.1"
   id="svg4"
   sodipodi:docname="email.svg"
   inkscape:version="0.92.1 r15371">
  <metadata
     id="metadata10">
    <rdf:RDF>
      <cc:Work
         rdf:about="">
        <dc:format>image/svg+xml</dc:format>
        <dc:type
           rdf:resource="http://purl.org/dc/dcmitype/StillImage" />
      </cc:Work>
    </rdf:RDF>
  </metadata>
  <defs
     id="defs8" />
  <sodipodi:namedview
     pagecolor="#ffffff"
     bordercolor="#666666"
     borderopacity="1"
     objecttolerance="10"
     gridtolerance="10"
     guidetolerance="10"
     inkscape:pageopacity="0"
     inkscape:pageshadow="2"
     inkscape:window-width="1054"
     inkscape:window-height="686"
     id="namedview6"
     showgrid="false"
     inkscape:zoom="0.78666667"
     inkscape:cx="-56.567797"
     inkscape:cy="150"
     inkscape:window-x="283"
     inkscape:window-y="195"
     inkscape:window-maximized="0"
     inkscape:current-layer="svg4" />
  <path
     d="M150 0C67.2 0 0 67.2 0 150c0 82.8 67.2 150 150 150s150-67.2 150-150C300 67.2 232.8 0 150 0zM150 52.7l88.8 55.4H61.2L150 52.7zM239.9 196.4h0c0 8.9-7.2 16.1-16.1 16.1H76.2c-8.9 0-16.1-7.2-16.1-16.1v-84.9c0-0.9 0.1-1.9 0.3-2.7l84.8 52.9c0.1 0.1 0.2 0.1 0.3 0.2 0.1 0.1 0.2 0.1 0.3 0.2 0.6 0.3 1.2 0.6 1.8 0.7 0.1 0 0.1 0 0.2 0 0.7 0.2 1.4 0.3 2.1 0.3h0c0 0 0 0 0 0 0.7 0 1.4-0.1 2.1-0.3 0.1 0 0.1 0 0.2 0 0.6-0.2 1.2-0.4 1.8-0.7 0.1-0.1 0.2-0.1 0.3-0.2 0.1-0.1 0.2-0.1 0.3-0.2l84.8-52.9c0.2 0.9 0.3 1.8 0.3 2.7V196.4z"
     id="path2"
     style="fill:#fbc02d;fill-opacity:1" />
</svg>
